<svg width="35" height="35" viewBox="0 0 35 35" fill="none" xmlns="http://www.w3.org/2000/svg">
<mask id="mask0" mask-type="alpha" maskUnits="userSpaceOnUse" x="0" y="0" width="35" height="35">
<path fill-rule="evenodd" clip-rule="evenodd" d="M0 17.5001C0 27.165 7.83497 35 17.5 35C27.165 35 35 27.165 35 17.5001C35 7.83499 27.165 0 17.5 0C7.83497 0 0 7.83499 0 17.5001Z" fill="white"/>
</mask>
<g mask="url(#mask0)">
<path fill-rule="evenodd" clip-rule="evenodd" d="M0 17.5001C0 27.165 7.83497 35 17.5 35C27.165 35 35 27.165 35 17.5001C35 7.83499 27.165 0 17.5 0C7.83497 0 0 7.83499 0 17.5001Z" fill="url(#paint0_radial)"/>
<path fill-rule="evenodd" clip-rule="evenodd" d="M30.2881 -1.40007H4.38809V5.59995H30.2881V-1.40007ZM4.38809 36.4001H30.2881V29.4H4.38809V36.4001ZM-1.91177 22.05H36.9382V12.9501H-1.91177V22.05Z" fill="url(#paint1_linear)"/>
</g>
<defs>
<radialGradient id="paint0_radial" cx="0" cy="0" r="1" gradientUnits="userSpaceOnUse" gradientTransform="translate(22.629 14.0828) rotate(103.777) scale(21.5368 21.5393)">
<stop stop-color="#FBE993"/>
<stop offset="0.426228" stop-color="#FDE622"/>
<stop offset="1" stop-color="#F5B732"/>
</radialGradient>
<linearGradient id="paint1_linear" x1="-0.0523239" y1="16.9209" x2="35.1034" y2="16.9209" gradientUnits="userSpaceOnUse">
<stop stop-color="#2B2B2B"/>
<stop offset="0.152836" stop-color="#131313"/>
<stop offset="0.745954" stop-color="#131313"/>
<stop offset="1" stop-color="#1B1B1B"/>
</linearGradient>
</defs>
</svg>
